క్రమశిక్షణే స్వేఛ్చ (Flow)
శ్రీకాంత్: participates introduction
పవన్, అరవింద్ : సాయిరాం.
శ్రీకాంత్: మనం చర్చను మొదలుపెట్టే ముందు క్రమశిక్షణ మరియు స్వేఛ్చ అంటే ఏమో తెలుసుకుందాం. క్రమశిక్షణ అంటే చక్కటి నియమం పాటించడం. అసలైన స్వేఛ్చ అనగా మనం ఆ భగవత్స్వరుపులమే అని అనుభూతి పొందిననాడే. మనం చేసే ప్రతి పనిలో పూర్తి ఆనందం అనుభవించడం ఇంకా మన గమ్యానికి చేరుకోవడానికి ఉన్న అవరోధాలను అధిగమించడమే, అసలైన స్వేఛ్చ. ఈ స్వేచ్ఛను పొందడానికి మనకు క్రమశిక్షణ ఒక సాధనముగా ఉపయోగపడుతుంది. 
అరవింద్: బ్రదర్ మీరు బాగా చెప్పారు. నాకు గీతాంజలిలో రవీంద్రనాథ్ టాగూర్, స్వేఛ్చ మీద చెప్పిన పద్యం గుర్తుకు వస్తోంది.
Where the mind’s without fear 
and the head is held high 
Where knowledge is free 
Where the world’s not been broken 
up into fragments 
By narrow domestic walls 
Where words come out 
from the depth of truth 
Into that heaven of freedom
Into that heaven of freedom
Into that heaven of freedom
అంటే మన మనసులో భయంలేని నాడు , మనం పలికే పలుకు సత్యమైనప్పుడు, అసలైన స్వేచ్ఛను అనుభవిస్తాము. 
పవన్: బ్రదర్ మంచి పద్యం గుర్తుచేశారు. మీరు freedom అన్నప్పుడు మన జాతి పిత మహాత్మా గాంధి గారు గుర్తుకు వచ్చారు. ఆయన ఎంత మంది, ఎన్ని అడ్డంకులు పెట్టిన తను పాటించే అహింస అనే క్రమశిక్షణ తప్పలేదు. అందువలన మన భారత దేశానికి స్వాతంత్రం సంపాదించగలిగారు. అయన అహింస పాటించడం, ఎప్పుడు ఇబ్బందిగా భావించలేదు. ఎందుకంటే అహింస అనే క్రమశిక్షణ పాటించడం వలన ఆయనకు, తప్పకుండ స్వేఛ్చ పొందుతాము అని పూర్తి నమ్మకం ఉంది. మనం బ్రిటిష్ వారి నుండి విముక్తి పొంది స్వేఛ్చగా జీవించగలుగుతున్నాము. కాని మనకిచ్చిన స్వేచ్ఛను మనం ఎలా ఉపయోగించుకుంటున్నాం అనేది గమనించాలి. దీనికి ఉదాహరణ చెప్పాలనుకుంటున్నాను. నేను రోజు officeకి వేల్తునప్పుడు Traffic నియమాలు పాటించకపోవడం వలన ఎంత ఇబ్బందిపడుతున్నమో గమనిస్తున్నాను. Traffic నియమాలు పాటించటం అనేది ఒక క్రమశిక్షణ, దాని పాటించడం వలన, ఒకరికి ఇబ్బంది కలగ కుండ మన గమ్యానికి తొందరగా, క్షేమంగా చేరుకోగలుగుతాము. అలాకాకుండా మనకు road మీద ఇష్టం వచ్చినట్లు నడిచే స్వేఛ్చ కూడా ఉంది. కాని దాని వల్ల చెడు జరిగే అవకాశం ఎక్కువగా ఉంది. ఎవరికి నచ్చినట్లు వారు వెళ్తూ ఉంటె ప్రాణహాని కలిగే అవకాశం ఉంది. ఈ నియమాలను మనము భారంగా భావించకూడదు. ఒక భాధ్యతగా భావించాలి. మన Travel అనేది ఒక సమస్యగా మారదు. ఇవిధంగా traffic నియమాలు పాటించడం వలన మన గమ్యానికి చేరుకోవడానికి స్వేఛ్చ దొరుకుతుంది. traffic అనే సమస్య నుండి విముక్తి పొందుతాము. అప్పుడు మనకు నిజమైన స్వేఛ్చ దొరుకుతుంది.
శ్రీకాంత్: అదే మనం ఇక్కడ స్వేఛ్చను ఇంకో రకంగా చెప్పుకోవచ్చు. మనకు ఇష్టం వచ్చినట్లు జీవించడం. నాకు నచ్చింది నేను చేస్తాను అని తన హక్కును భంగం చేసుకోవడం. మన ప్రవర్తన వలన ఇంకొకరికి ఇబ్బంది కలుగుతుందా లేదా అని ఆలోచించకుండా ప్రవర్తించడం. ఇక్కడ స్వేఛ్చ ఉంది కాని దానిని దుర్వినియోగం చేస్తారు. ఈ అపరమిత స్వేఛ్చ వల్ల మనకు హాని జరుగుతుంది. ఉదాహరణకు స్వామీ స్నాతకోత్సవ డ్రామా , పిల్లవాని ప్రవర్తన.......................................అతను చివరికి పశ్చాత్తాపం పడి తన స్వేచ్ఛను దుర్వినియోగం చేసుకున్నాడని అర్థం చేసుకున్నాడు.
పవన్: అవును శ్రీకాంత్ అందుకే క్రమశిక్షణ పాటించడం వలన విచక్షణ శక్తి పెరిగి ఏది మంచో, ఏది చెడో మనకు తెలుస్తుంది. అప్పుడు మనకిచ్చిన స్వేఛ్చను దుర్వినియోగం చేయము. నా జీవితంలో, చిన్న క్రమశిక్షణ పాటించడంవలన వచ్చిన మార్పు చెప్తాను. నా B.Tech ...... మొదట నాకు ఇచ్చిన స్వేచ్ఛను వ్యర్థం చేసాను. తర్వాత క్రమశిక్షణ ద్వారా నేను చదువుకోవడం వలన వచ్చిన freedom తెలుసుకోగలిగాను. ఒక పని క్రమశిక్షణతో చేయడం వలన మిగితా అన్ని పనులు కూడా automaticగా  చాల organizeగా చేసుకోగాలిగాను. ఇక్కడ నేను రోజు సాయి గాయత్రి ఒక క్రమంగా చదవడం వలన నేను ఏది మంచో, చెడో ఆలోచించుకోగలిగాను. 
శ్రీకాంత్: అవును, పవన్ నీ example చాల బాగుంది. ఇందులో నీ పరివర్తనను మనం ఆధ్యాత్మిక పరంగా విశ్లేషించాలంటే  వాటిని త్రిగుణాలుగా చెప్పుకోవచ్చు . అవి తమో, రజో, సత్వ గుణాలు. మొదట్లో నీవు చదువు మీద ధ్యాస పోయి నిర్లక్ష్యంతో ఉండడం తమో గుణం కింద చెప్పవచ్చు. ఒక వేళ నీవు మంచి మార్కులు కోసమే చేసి ఉంటే అది రజో గుణం కింద వస్తుంది. కాని నీవు ఏ పలితం ఆశించకుండా అంతా భగవంతుని కొరకే అనుకోని సాధన చేసావు దానిని సత్వ గుణం అని చెప్పుకోవచ్చు.
అరవింద్: కాని ఈ Technology యుగంలో ఈ సాధన చేయడం ఎంత వరకు సాధ్యం, ప్రతి ఒక్కరిది busy life అయిపొయింది. అందరిది ఉరుకులు పరుగులు. పొద్దున్న లేచినప్పటి నుండి రాత్రి పనుకొనే వరకు మనిషికి విశ్రాంతి లేదు. వారికి సాధన చేయాలి అని ఉంది కాని సమయం కుదరట్లేదు. మరి ఎలా? 
పవన్:  అవును అరవింద్ సరైన ప్రశ్న వేసావు. దానికి స్వామీ 2009 లో పూర్వ విద్యార్థుల సమ్మెలనలో ప్రశ్నోతర సమయంలో ఒక విద్యార్థి ఇలానే అడిగారు. దానికి  స్వామీ ఏమి చెప్పారంటే మనకు వీలు ఉన్న సమయంలో సాధన చేయాలి. నీకు సమయం లేనప్పుడు నీవు చేసే ప్రతి పని, కర్తవ్యాన్ని నాకు అర్పిస్తే అదే సాధన కింద వస్తుంది. అప్పడు నీవు చేస్తున్న పని ఎప్పుడైతే శ్రధగా భక్తితో చేస్తే పనే సాధన. దీనినే కర్మ యోగం అంటారు.
శ్రీకాంత్: అవును అసలు Freedom, శాశ్విత స్వేఛ్చ అంటే ఆ భగవంతున్ని చేరుకోవడం, ఆ భగవంతుని ధ్యాసలో ఉండి మన నిత్యం మనం పనులు మనం చేసుకుంటే అసలైన స్వేఛ్చ కలుగుతుంది. మనం భగవంతునికి అర్పించి ఎప్పుడైతే క్రమశిక్షణ చేయగలుగుతామో అప్పుడు అసలైన ఆనందం, తృప్తితో ఆ పనిని చేస్తాము. ఒక సారి పుట్టపర్తి స్కూల్ ...... షిరిడి సచ్చరిత్ర.. అతనికి క్రమం తప్పకుండ  చదవడం ఆనందంగా ఉండేది. కాని ఏమి ఆశించి చేయలేదు. స్వామిని సంతోషంగా ఉంచాలని చేసాడు, అంతే.  క్రమశిక్షణ పాటించడం వలన ప్రాపంచిక పరంగా మనకు తెలీదు ఎటువంటి ప్రయోజనాలు ఉంటాయో, ఎప్పుడు ఎలా ఉపయోగపడుతుందో. నువ్వు నమ్మిన భగవంతుని మీద పూర్తి విశ్వాసంతో క్రమశిక్షణ పాటిస్తే తప్పకుండ అది postive energy ఇస్తుంది.
అరవింద్: నాకు కూడా ప్రైమరీ schoolలో జరిగిన  ఒక విషయం గుర్తుకు వస్తోంది. ఇక్కడ  spiritualగా క్రమశిక్షణ పాటించడం వలన ఎలా మనం పురోగతి పొందుతామో తెలుసుకోవచ్చు. గణేష్ విగ్రహం .... క్రమశిక్షణతో ఆ పిల్లవాడు ఏమి ఆశించకుండా చేసాడు కాబట్టి దేవునితో బంధం ఏర్పరుచుకోగలిగాడు. ఇలా ఆ పిల్లవాడు క్రమశిక్షణ ద్వారా దేవునికి దగ్గర అయ్యాడు. ఇక్కడ ఇంకొకటి గమనించాల్సింది ఏమంటే, రోజు క్రమం తప్పకుండా పూజ చేస్తే లాభం వస్తుందా? అంటే ఆ పని పూర్తి నిర్మల మనసుతో చేయాలి అప్పుడే ఆ భగవంతున్ని కృప ఉంటుంది అల కాకుండా త్రికరణ శుద్ధి లేకుండా చేస్తే ఫలితం ఉండదు.  ఆ పిల్లవాని మనసు ఎంత పరిశుద్దంగా ఉందొ మనం ఆలోచించాలి.
శ్రీకాంత్:  కాని నేటి యువతరం, రోజు క్రమశిక్షణతో ఉండడం చాల ఇబ్బందిగా, బాధగా  భావిస్తున్నారు. అలాంటి వారికి ఒక ఉదాహరణ ఉంది. మనం చేస్తున్న కొద్ది, కష్టం సులువుగా మారుతుంది.  driving ఉదాహరణ... మనం ఒక్క సారి మనం చేసే పని ఇబ్బంది అని భావించడం ఎప్పుడైతే అపెస్తామో, ఆ క్రమశిక్షణకు అలవాటు పడుతామో అప్పుడు మన మనస్సు శ్రమ పడటం అనే భావన నుండి శ్రమ లేకుండా ఉండడం అనే స్థాయికి వస్తారు. అప్పుడు పూర్తి స్వేఛ్చ వస్తుంది.
పవన్: ఇక్కడ మనం గమనిచాల్సింది ఏమంటే క్రమశిక్షణ పాటించడం కష్టంగా ఎందుకు భావిస్తున్నారు. మనకు ఇష్టం లేదు కాబట్టి. కానీ దాని విలువ అర్థం చేసుకొగలిగితే ఆ భావన ఉండదు. నచ్చితే ఎంత కష్టమైన పనైనా చేస్తాం. రాత్రింబవళ్ళు పని చేస్తాము. ఇంకా మరి ఇష్టం ఎలా కలుగుతుంది? ఇక్కడ స్వేఛ్చ వల్ల youth short term ప్రయోజనాల కోసమే ఎదురు చూస్తాము. దానికి ఒక ఉదాహరణ ...స్కూల్ బాయ్ ... ఉపనయనం.... అలా మనం motivate చేయవచ్చు. (result oriented)
అరవింద్: అవును అర్థం చేసుకున్నప్పుడే మనం క్రమశిక్షణ వదలకుండా పాటిస్తాం. దీనికి ఒక ఉదాహరణ...  స్వామి సుప్రభాతం....ఎలాగితే spring  నొక్కి పట్టుకున్నంత వరకు ఒదిగి ఉంటుంది, ఒక్క సారిగా వదిలేస్తే అదే వేగంగా మరల అదే స్తాయికి వస్తుంది. అందుకే బలవంతంతో పాటించే క్రమశిక్షణ చాల కాలం అనుసరించలేరు. మనం అర్థం చేసుకొని అవగాహన వచ్చినప్పుడు strict అనిపించదు. వారికి వారు ఒకరి ప్రమేయం లేకుండా ఎన్ని అడ్డంకులు వచ్చిన క్రమశిక్షణ పాటిస్తారు.  
పవన్: నా personal example....
శ్రీకాంత్: అవును పరమిత స్వేఛ్చ ఉన్నప్పుడే జీవితం సక్రమంగా నడుస్తుంది. అలా కాకుంటే దుర్వినియోగ పరిచినవరమవుతాము. స్వామీ క్రమశిక్షణ ఆధ్యాత్మిక సాధనకు మొట్ట మొదటి మెట్టు అని చెప్పారు. మనం spiritual రంగంలో అభివృద్ధి చెందడానికి క్రమశిక్షణ తప్పనిసరి అని చెప్పారు. మన క్రమశిక్షణ వల్ల స్వామీకి ఎలా దగ్గరవుతాము ఆలోచించాలి తప్పా, దాని వల్ల మనకు ఏమి వస్తుంది అని చూడకూడదు. మనం చేసే పని మీద ఫలితం ఆశించకుండా మన భాద్యతగా చేస్తున్నప్పుడు భగవంతున్ని కృప దానంతటికి అదే వస్తుంది.. ఒకసారి హైదరాబాద్ youth ... క్రమశిక్షణ  ఏ ఫలితం ఆశించకుండా, సంతోషంగా చేసారు కాబట్టి వారు ఒక మంచి పని చేయడం వలన వారికి ఇంకొన్ని మంచి పనులు చేసే అవకాశం దొరికింది. 
పవన్:  అవును శ్రీకాంత్ ఇంకా మన పురాణాలలో కుడా చాల ఉదాహరణలు క్రమశిక్షణ ద్వారా శాశ్విత స్వేఛ్చ ఎలా పొందారో మనం తెలుసుకోవచ్చు. భరత కథ.....  ఆయన ఒకరోజు తన రాజ్యాన్ని విడిచి తపస్సు చేసుకోడానికి బయల్దేరుతారు, అక్కడ శ్రీమన్నారాయణుడిని పూజిస్తూ తపస్సు చేస్తూ ఉండగా ఒక లేడి పిల్ల కనిపిస్తుంది, ఆయన దాని చేరదీసి దానికి ఆహరం పెట్టి దానిని చాలా శ్రద్ధతో చూసుకుంటూ దానితో ఆడుకుంటూ ఉంటారు. ఆ లేడి మాయలో పడ్డ ఆయన అసలు అడవులకి ఎందుకు వచ్చాడు అనే విషయమే మర్చిపోతారు, ఆయన తపస్సు మర్చిపోతారు, దైవారాధన ఉండదు. ఆలా ఒకరోజు అయన అంత్య కాలం సమీపిస్తుంది, ఆ సమయంలో కూడా ఆయన ఆ లేడి గురించే చింతిస్తూ ఉంటారు ఆయన ఆ లేడినే స్మరణిస్తూ ప్రాణాలు వదిలేస్తారు, మరణించే ముందు ఆయన లేడినే స్మరించారు కాబట్టి ఆయన తరువాత జన్మలో లేడిలానే జన్మిస్తారు. ఆయన పూర్వ జన్మ ఆయనకీ గుర్తు ఉండడం వలన ఈసారి ఆయన ఎవరితో మాట్లాడడు ఎటువంటి పాపలు చెయ్యడు మనస్సులో నిత్యం నారాయణ జపం చేస్తూ ఉండేవాడు ఆలా ఆయన ఆ లేడి లాగా ప్రాణం విడిచారు. కానీ మోక్షం కావలి అంటే మనిషి రూపంలోనే సాధ్యం కాబట్టి మళ్ళి మనిషిలా ఒక బ్రహ్మజ్ఞ్యాని కి పుత్రుడులా జన్మిస్తాడు. ఆయన మళ్ళి ఎక్కడ మోక్షం కోల్పోతాడో అని చాలా జాగ్రత్తతో అమాయకుడిలా, విద్య రానివాడిలా నటిస్తారు. ఆయనకి ఎటువంటి పని చెప్పిన, ఏమి పెట్టిన, ఆయన అన్నియు బ్రహ్మయే అనుకుని చేసేవాడు, ఒక రోజు ఆయన ఒక చోట కూర్చొని ఉండగా కొంత మంది వచ్చి ఆయనని కట్టేసి బలి ఇవ్వడానికి కాళికా దేవి గుడికి తీసుకెల్తారు ఆయన ఏమి మాట్లాడకుండా వాళ్లతో వెళ్ళి అక్కడ అందరిలోనూ బ్రహ్మనే చూస్తారు, అప్పుడు ఆ గుడిలో ఉన్న విగ్రహంలో నుండి అమ్మవారు బయటకి వచ్చి ఇతనిని కాపాడుతారు. దీనిలో ఒకవేళ భరత మహారాజు మొదటి జన్మలోనే తన మనస్సు ఫై అదుపు తెచ్చుకొని ఉంటే ఆయనకీ ఆ పరిస్థితి వచ్చేది కాదు, ఆయన తన జ్ఞానేంద్రియాలను నిగ్రహించుకొని ఉంటే అది ఆయనకి మోక్షాన్ని తెచ్చేది. ......ఈ  విధంగా మనిషి జీవితం లో క్రమశిక్షణ ఎంత విలువైనదో తెలుస్తుంది.
శ్రీకాంత్: బాగా చెప్పావ్. అందుకే స్వేఛ్చ పొందడానికి మనం చిన్నప్పటి నుంచి క్రమ పద్దతిలో ఉంటేనే మన నియమాలు మనకిబ్బంది అనిపించవు. స్వామీ..... బాలవికాస్ స్తాపించారు. చిన్నప్పటి నుంచి బాలవికాస్ కు పంపించడం వలన వారికి  క్రమశిక్షణ మీద అవగాహన పెరుగుతుంది.  బాబా వారు Start Early, drive slowly reach safely అన్నారు. ఇలా వారికి ఇబ్బంది అనిపించదు. వారికీ అన్నిటిలో స్వేఛ్చ ఉంటుంది. అలవాటు అనేది అప్పటికి అప్పుడు మారదు. మొక్కై వంగనిది మానై వంగుతుందా? ఇంకా మనం స్నాతకోత్సవ డ్రామా ఉదాహరణలో కుడా చూసాం. తను చివరి రోజు సమయం కు వద్దమనుకున్నా తను మొదటి నుంచి ఆలస్యంగా రావడం వలన, చివరి రోజు కుడా తను తప్పించలేక పోయాడు. 
అరవింద్: అదే కాదు, స్వామీ భగవాన్ బాబా వారు క్రమశిక్షణ సరిగ్గా ఉంటే ఇంకొకరి రక్షణ అవసరం లేదు అని అన్నారు. దీనికి ఉదాహరణ ....ఒకప్పుడు నలుడు అనే ఒక మహారాజు ఉండేవాడు, అతను క్రమశిక్షణ తప్పకుండ ధర్మబద్ధంగా ఉండేవాడు. అతను ఒకరోజు దమయంతి స్వయంవరానికి వెళ్ళి, అక్కడ దమయంతిని వివాహమాడతాడు. ఆ స్వయంవరానికి విచ్చేస్తున్న కలి పురుషుడు ఈ విషయాన్ని తెలుసుకుంటాడు. అతను క్రోధంలో నల మహారాజు యొక్క జీవితంలో సుఖం అనేది లేకుండా చేస్తాను అని నిర్ణయించుకుంటాడు. అప్పటి నుండి సరైన సమయం కోసం ఎదురుచూస్తూ ఉండగా నల మహారాజుకి ఇద్దరు పిల్లలు పుడతారు. ఇంతలో కలి పురుషుడు నల మహారాజు పెద్ద నాన్న పుత్రుడు అయినా జ్ఞ్యాతి దెగ్గరికి వెళ్ళి రాజ్యం మొత్తం తనకి వచ్చేలా చేస్తాను అని మాట ఇచ్చి ద్వాపరుడుని పిలిచి అతనిని పాచికలలో ప్రవేశించమని, తాను నల మహారాజూలోనికి  ప్రవేశించి అతనిని నాశనం చేస్తాను అని చెప్పాడు కాని కలి పురుషుడు నల మహారాజులోకి ప్రవేశించలేకపోతాడు. దానికి కారణం చెప్పాడు బృహద్వశుడు. ఆయన ఎప్పుడు పుణ్యం గురించే ఆలోచిస్తారు, పాపమునకు వశుడు కాడు, ఆయన కోపంతో ఆలోచించడు ప్రేమతో ఆలోచిస్తాడు దాని వలన సత్ఫాలితాలు ఉంటాయి. పాప చింతనతో కూడుకున్న పని ఏది చేయడు నిత్యం జపం చేస్తూ ఉంటారు, మంచి విషయాలు వింటూ ఉంటారు. ఇలా అన్ని క్రమశిక్షణతో ఉండడం వలన కలి పురుషుడు నల మహారాజులోనికి ప్రవేశించలేకపోతాడు.
ముగింపు: 
అరవింద్: మరి నేను 
పవన్: బాగా చెప్పారు అరవింద్, శ్రీకాంత్.. మానవుని తుట్టతుదటి లక్ష్యం ఆత్మ జ్ఞానం పొందుట కోసమే. అందుకు మన స్వామీ నవసూత్ర విధానాలను ఇచ్చి సులభంగా భగవంతున్ని చేరుకోవడానికి అనువైన మార్గం ప్రసాదించారు. మనమందరం ఆ పరిపూర్ణ ఆనందాన్ని క్రమశిక్షణ ద్వారా పొందాలని భావిస్తు, దానికి  స్వామి యొక్క అనుగ్రహం నిండుగా ఉండాలని ఆశిస్తూ ఈ చర్చను ముగిస్తున్నాం. 
రేడియో సాయి శ్రోతలందరికి సాయిరాం.


so thought our action
so our action our habit
so our habit our character 
so our character our  destination